Crab Tutorial • Adhikari.pkg
…
mutate_size <- function(data) {
  result <- data %>% 
    mutate(estimated_size = carapace_length* carapace_width * body_depth) %>% 
    select(carapace_length, carapace_width, body_depth, estimated_size)
  
  return(result)
}

To view this new estimated size column with the three measurements,
simply save the function as a variable and print the variable.

new_data <- mutate_size(crabs)
print(new_data)

## # A tibble: 200 × 4
##    carapace_length carapace_width body_depth estimated_size
##              <dbl>          <dbl>      <dbl>          <dbl>
##  1            16.1           19          7            2141.
##  2            18.1           20.8        7.4          2786.
##  3            19             22.4        7.7          3277.
##  4            20.1           23.1        8.2          3807.
##  5            20.3           23          8.2          3829.
##  6            23             26.5        9.8          5973.
##  7            23.8           27.1        9.8          6321.
##  8            24.5           28.4       10.4          7236.
##  9            24.2           27.8        9.7          6526.
## 10            25.2           29.3       10.3          7605.
## # ℹ 190 more rows
…
